{
    "minor": {
        "candidates": [
            {
                "image": {
                    "arch": "amd64",
                    "buildid": "20220423.100",
                    "estimated_size": 0,
                    "introduces_checkpoint": 2,
                    "product": "steamos",
                    "release": "holo",
                    "requires_checkpoint": 1,
                    "variant": "steamdeck-beta",
                    "version": "3.3.0"
                },
                "update_path": "steamos/holo/3.3/amd64/steamos-holo-20220423.100-3.3-amd64-steamdeck-beta.raucb"
            },
            {
                "image": {
                    "arch": "amd64",
                    "buildid": "20220501.100",
                    "estimated_size": 0,
                    "introduces_checkpoint": 3,
                    "product": "steamos",
                    "release": "holo",
                    "requires_checkpoint": 2,
                    "variant": "steamdeck-beta",
                    "version": "3.4.0"
                },
                "update_path": "steamos/holo/3.4/amd64/steamos-holo-20220501.100-3.4-amd64-steamdeck-beta.raucb"
            }
        ],
        "release": "holo"
    }
}