{
    "minor": {
        "candidates": [
            {
                "image": {
                    "arch": "amd64",
                    "buildid": "20231115.1",
                    "estimated_size": 0,
                    "product": "steamos",
                    "release": "holo",
                    "requires_checkpoint": 2,
                    "variant": "steamdeck",
                    "version": "3.6.0"
                },
                "update_path": "steamos/holo/3.6/amd64/steamos-holo-20231115.1-3.6-amd64-steamdeck.raucb"
            }
        ],
        "release": "holo"
    }
}