{
    "minor": {
        "candidates": [
            {
                "image": {
                    "arch": "amd64",
                    "buildid": "20230727.100",
                    "estimated_size": 0,
                    "product": "steamos",
                    "release": "holo",
                    "requires_checkpoint": 1,
                    "variant": "steamdeck-beta",
                    "version": "3.6.0"
                },
                "update_path": "steamos/holo/3.6/amd64/steamos-holo-20230727.100-3.6-amd64-steamdeck-beta.raucb"
            }
        ],
        "release": "holo"
    }
}