{
    "minor": {
        "candidates": [
            {
                "image": {
                    "arch": "amd64",
                    "buildid": "20220402.3",
                    "estimated_size": 0,
                    "introduces_checkpoint": 1,
                    "product": "steamos",
                    "release": "holo",
                    "requires_checkpoint": 0,
                    "variant": "steamdeck",
                    "version": "3.1.0"
                },
                "update_path": "steamos/holo/3.1/amd64/steamos-holo-20220402.3-3.1-amd64-steamdeck.raucb"
            },
            {
                "image": {
                    "arch": "amd64",
                    "buildid": "20220411.1",
                    "estimated_size": 0,
                    "product": "steamos",
                    "release": "holo",
                    "requires_checkpoint": 1,
                    "variant": "steamdeck",
                    "version": "3.2.0"
                },
                "update_path": "steamos/holo/3.2/amd64/steamos-holo-20220411.1-3.2-amd64-steamdeck.raucb"
            }
        ],
        "release": "holo"
    }
}