{
    "minor": {
        "candidates": [
            {
                "image": {
                    "arch": "amd64",
                    "buildid": "20181108.100",
                    "estimated_size": 0,
                    "product": "steamos",
                    "release": "holo",
                    "variant": "steamdeck-beta",
                    "version": "snapshot"
                },
                "update_path": "steamos/holo/snapshot/amd64/steamos-holo-20181108.100-snapshot-amd64-steamdeck-beta.raucb"
            }
        ],
        "release": "holo"
    }
}