{
    "minor": {
        "candidates": [
            {
                "image": {
                    "arch": "amd64",
                    "buildid": "20220301.100",
                    "estimated_size": 0,
                    "product": "steamos",
                    "release": "holo",
                    "variant": "steamdeck-beta",
                    "version": "3.1.0"
                },
                "update_path": "steamos/holo/3.1/amd64/steamos-holo-20220301.100-3.1-amd64-steamdeck-beta.raucb"
            }
        ],
        "release": "holo"
    }
}