{
    "minor": {
        "candidates": [
            {
                "image": {
                    "arch": "amd64",
                    "buildid": "20220303.2",
                    "estimated_size": 382505512,
                    "product": "steamos",
                    "release": "holo",
                    "variant": "steamdeck",
                    "version": "3.0.0"
                },
                "update_path": "steamos/holo/3.0/amd64/steamos-holo-20220303.2-3.0-amd64-steamdeck.raucb"
            }
        ],
        "release": "holo"
    }
}