{
  "minor": {
    "release": "holo",
    "candidates": [
      {
        "image": {
          "product": "steamos",
          "release": "holo",
          "variant": "steamdeck",
          "arch": "amd64",
          "version": "snapshot",
          "buildid": "20211225.1",
          "estimated_size": 0
        },
        "update_path": "steamdeck/20211225.1/steamdeck-20211225.1-snapshot.raucb"
      }
    ]
  }
}
