{
    "minor": {
        "candidates": [
            {
                "image": {
                    "arch": "amd64",
                    "buildid": "20230411.1",
                    "estimated_size": 0,
                    "product": "steamos",
                    "release": "holo",
                    "requires_checkpoint": 1,
                    "variant": "steamdeck",
                    "version": "3.5.0"
                },
                "update_path": "steamos/holo/3.5/amd64/steamos-holo-20230411.1-3.5-amd64-steamdeck.raucb"
            }
        ],
        "release": "holo"
    }
}